<?xml version='1.0' encoding='UTF-8'?>
<glyph format="1" name="dieresiscmb">
  <advance width="0" />
  <outline>
    <contour>
      <point name="hintSet0000" type="curve" x="-109" y="569" />
      <point x="-67" y="569" />
      <point x="-38" y="600" />
      <point type="curve" x="-38" y="641" />
      <point x="-38" y="681" />
      <point x="-67" y="712" />
      <point type="curve" x="-109" y="712" />
      <point x="-151" y="712" />
      <point x="-181" y="681" />
      <point type="curve" x="-181" y="641" />
      <point x="-181" y="600" />
      <point x="-151" y="569" />
    </contour>
    <contour>
      <point type="curve" x="109" y="569" />
      <point x="151" y="569" />
      <point x="181" y="600" />
      <point type="curve" x="181" y="641" />
      <point x="181" y="681" />
      <point x="151" y="712" />
      <point type="curve" x="109" y="712" />
      <point x="67" y="712" />
      <point x="38" y="681" />
      <point type="curve" x="38" y="641" />
      <point x="38" y="600" />
      <point x="67" y="569" />
    </contour>
  </outline>
  <lib>
    <dict>
      <key>com.adobe.type.autohint</key>
      <data>
        <hintSetList id="acbb266db386b5e7ad595b1def94de084a7be5a51ffc7fc99eb2a1214cbde6daeae2f625b1340bd1773a521ad9084171f563690e52c15d759225d807d358d618">
          <hintset pointTag="hintSet0000">
            <hstem pos="569" width="143" />
            <vstem pos="-181" width="143" />
            <vstem pos="38" width="143" />
          </hintset>
        </hintSetList>
      </data>
    </dict>
  </lib>
</glyph>