<?xml version='1.0' encoding='UTF-8'?>
<glyph format="1" name="Aring">
  <advance width="520" />
  <outline>
    <contour>
      <point name="hintSet0000" type="curve" x="260" y="846" />
      <point x="291" y="846" />
      <point x="318" y="823" />
      <point type="curve" x="318" y="784" />
      <point x="318" y="743" />
      <point x="291" y="722" />
      <point type="curve" x="260" y="722" />
      <point x="227" y="722" />
      <point x="200" y="743" />
      <point type="curve" x="200" y="784" />
      <point x="200" y="823" />
      <point x="227" y="846" />
    </contour>
    <contour>
      <point type="curve" x="260" y="700" />
      <point x="305" y="700" />
      <point x="344" y="734" />
      <point type="curve" x="344" y="784" />
      <point x="344" y="835" />
      <point x="305" y="868" />
      <point type="curve" x="260" y="868" />
      <point x="213" y="868" />
      <point x="176" y="835" />
      <point type="curve" x="176" y="784" />
      <point x="176" y="734" />
      <point x="213" y="700" />
    </contour>
    <contour>
      <point type="line" x="135" y="264" />
      <point type="line" x="182" y="396" />
      <point x="210" y="476" />
      <point x="234" y="544" />
      <point type="curve" x="258" y="626" />
      <point type="line" x="262" y="626" />
      <point x="286" y="544" />
      <point x="310" y="476" />
      <point type="curve" x="338" y="396" />
      <point type="line" x="384" y="264" />
    </contour>
    <contour>
      <point type="line" x="476" y="0" />
      <point type="line" x="510" y="0" />
      <point type="line" x="274" y="660" />
      <point type="line" x="246" y="660" />
      <point type="line" x="10" y="0" />
      <point type="line" x="42" y="0" />
      <point type="line" x="125" y="236" />
      <point type="line" x="394" y="236" />
    </contour>
  </outline>
  <lib>
    <dict>
      <key>com.adobe.type.autohint</key>
      <data>
        <hintSetList id="4f7b4b068cf94bb611e26f5800196c6582ccb862ebb08101491d9b131c8bc9202c0e6efef7a416c8dec9405079a333021267bf7f3f447cc34a59a1f237908a8f">
          <hintset pointTag="hintSet0000">
            <hstem pos="21" width="-21" />
            <hstem pos="236" width="28" />
            <hstem pos="626" width="34" />
            <hstem pos="700" width="22" />
            <hstem pos="846" width="22" />
            <vstem pos="176" width="24" />
            <vstem pos="318" width="26" />
          </hintset>
        </hintSetList>
      </data>
    </dict>
  </lib>
</glyph>