<?xml version="1.0" encoding="utf-8"?>
<glyph name="ahoi.alt" format="1">
  <advance width="522"/>
  <outline>
    <component base="a.alt"/>
    <component base="hoicmb" xOffset="210"/>
  </outline>
</glyph>
