<?xml version='1.0' encoding='UTF-8'?>
<glyph format="1" name="Eng.sca">
  <advance width="585" />
  <outline>
    <contour>
      <point name="hintSet0000" type="curve" x="376" y="-152" />
      <point x="461" y="-152" />
      <point x="495" y="-93" />
      <point type="curve" x="495" y="-3" />
      <point type="line" x="495" y="518" />
      <point type="line" x="418" y="518" />
      <point type="line" x="418" y="275" />
      <point x="418" y="219" />
      <point x="425" y="153" />
      <point type="curve" x="429" y="101" />
      <point type="line" x="425" y="101" />
      <point type="line" x="365" y="212" />
      <point type="line" x="174" y="518" />
      <point type="line" x="90" y="518" />
      <point type="line" x="90" y="0" />
      <point type="line" x="167" y="0" />
      <point type="line" x="167" y="245" />
      <point x="167" y="301" />
      <point x="160" y="363" />
      <point type="curve" x="156" y="417" />
      <point type="line" x="160" y="417" />
      <point type="line" x="220" y="306" />
      <point type="line" x="412" y="0" />
      <point type="line" x="415" y="0" />
      <point x="415" y="-54" />
      <point x="405" y="-86" />
      <point type="curve" x="366" y="-86" />
      <point x="352" y="-86" />
      <point x="339" y="-82" />
      <point type="curve" x="328" y="-79" />
      <point type="line" x="313" y="-141" />
      <point x="328" y="-147" />
      <point x="349" y="-152" />
    </contour>
  </outline>
  <lib>
    <dict>
      <key>com.adobe.type.autohint</key>
      <data>
        <hintSetList id="b13d3c460a121301c7e9ba0d8b2d7f4c527023a7256363b5bcc5cf906ad9865df1c0843e4d48a38756ced92cf6f97c8bb61bc3e52a26ed76f353a90605cae532">
          <hintset pointTag="hintSet0000">
            <hstem pos="-152" width="66" />
            <hstem pos="417" width="101" />
            <vstem pos="90" width="77" />
            <vstem pos="418" width="77" />
          </hintset>
        </hintSetList>
      </data>
    </dict>
  </lib>
</glyph>